<svg xmlns="http://www.w3.org/2000/svg" width="155.303" height="225" viewBox="0 0 155.303 225">
  <path id="Path_1" data-name="Path 1" d="M2206.7,449V388.667H2051.4V449h35.181V553.333H2051.4v60.333h155.3V553.333h-35.181V449Z" transform="translate(-2051.396 -388.667)" fill="#fff"/>
</svg>
